In,Out,Penalty
 , ,0
-, ,0
?,?,0
.,.,0
',,0
+,,0
a,a,0
ai,aI,0
air,ar,0
ao,aU,0
aor,aUr,0
ar,ar,0
b,b,0
c,ts,0
ch,c,0
d,d,0
e,e,0
e'r,er,0
ei,e,1
eir,er,0
er,er,0
f,f,0
g,g,0
h,h,0
i,i,0
ia,ya,0
ian,yen,0
iang,yan,1
iao,yaU,0
iaor,yaUr,0
ie,ye,0
ier,yer,0
ingr,yer,0
iong,yon,1
iongr,yonr,1
ir,er,0
iu,yo,1
iur,yor,1
j,j,1
k,k,0
l,l,0
m,m,0
n,n,0
ng,n,1
ngg,ng,0
ngr,nr,1
nr,r,0
nü,nyu,0
nüan,nyuen,0
o,o,0
ong,on,1
ongr,onr,1
or,or,0
ou,o,1
our,or,1
p,p,0
q,c,1
r,j,1
s,s,0
sh,x,0
t,t,0
u,u,0
ü,u,0
ua,va,0
uai,vaI,0
uair,var,0
uan,van,0
üan,uen,0
uang,van,1
uangr,vanr,1
uanr,var,0
uar,var,0
ui,vi,1
uir,vir,0
un,ven,0
unr,ver,0
uo,vo,0
uor,vor,0
ur,ur,0
w,v,0
wu,u,0
wur,ur,0
x,x,1
y,y,0
yan,yen,0
yang,yan,1
yi,i,0
yingr,yer,0
yongr,yonr,1
yu,yu,0
yuan,yuen,0
z,ts,0
zh,j,0
